--------------- Build Started: 08/07/2024 22:10:34 Project: sw2271, Configuration: ARM GCC 5.4-2016-q2-update Debug ---------------
The code generation step is up to date.
The compile step is up to date, no work needs to be done.
The link step is up to date, no work needs to be done.
arm-none-eabi-gcc.exe -mcpu=cortex-m4 -mfloat-abi=softfp -mfpu=fpv4-sp-d16 -mthumb -I. -IGenerated_Source\PSoC6 -IGenerated_Source\PSoC6\pdl\./ -IGenerated_Source\PSoC6\pdl\cmsis/include/ -IGenerated_Source\PSoC6\pdl\devices/psoc6/include/ -IGenerated_Source\PSoC6\pdl\devices/psoc6/include/ip/ -IGenerated_Source\PSoC6\pdl\dfu/ -IGenerated_Source\PSoC6\pdl\drivers/peripheral/ -IGenerated_Source\PSoC6\pdl\drivers/peripheral/crypto/ -IGenerated_Source\PSoC6\pdl\drivers/peripheral/device/ -IGenerated_Source\PSoC6\pdl\drivers/peripheral/efuse/ -IGenerated_Source\PSoC6\pdl\drivers/peripheral/flash/ -IGenerated_Source\PSoC6\pdl\drivers/peripheral/gpio/ -IGenerated_Source\PSoC6\pdl\drivers/peripheral/ipc/ -IGenerated_Source\PSoC6\pdl\drivers/peripheral/lvd/ -IGenerated_Source\PSoC6\pdl\drivers/peripheral/mcwdt/ -IGenerated_Source\PSoC6\pdl\drivers/peripheral/profile/ -IGenerated_Source\PSoC6\pdl\drivers/peripheral/prot/ -IGenerated_Source\PSoC6\pdl\drivers/peripheral/scb/ -IGenerated_Source\PSoC6\pdl\drivers/peripheral/sysanalog/ -IGenerated_Source\PSoC6\pdl\drivers/peripheral/sysclk/ -IGenerated_Source\PSoC6\pdl\drivers/peripheral/sysint/ -IGenerated_Source\PSoC6\pdl\drivers/peripheral/syslib/ -IGenerated_Source\PSoC6\pdl\drivers/peripheral/syspm/ -IGenerated_Source\PSoC6\pdl\drivers/peripheral/systick/ -IGenerated_Source\PSoC6\pdl\drivers/peripheral/trigmux/ -IGenerated_Source\PSoC6\pdl\drivers/peripheral/wdt/ -IGenerated_Source\PSoC6\pdl\middleware/ -IGenerated_Source\PSoC6\pdl\middleware/em_eeprom/ -Wa,-alh=.\CortexM4\ARM_GCC_541\Debug/main_cm4.lst -g -D DEBUG -D CY_CORE_ID=0 -D CY_PSOC_CREATOR_USED=1 -D CYBLE_416045_02 -Wall -ffunction-sections -ffat-lto-objects -Og -c main_cm4.c -o .\CortexM4\ARM_GCC_541\Debug\main_cm4.o
main_cm4.c: In function 'BleProcessing':
main_cm4.c:676:29: warning: pointer targets in passing argument 1 of 'com_debug_PutString' differ in signedness [-Wpointer-sign]
         com_debug_PutString(buflog);
                             ^
In file included from Generated_Source\PSoC6/project.h:169:0,
                 from main_cm4.h:12,
                 from main_cm4.c:12:
Generated_Source\PSoC6/com_debug.h:442:22: note: expected 'const char_t * {aka const char *}' but argument is of type 'uint8_t * {aka unsigned char *}'
 __STATIC_INLINE void com_debug_PutString(char_t const string[])
                      ^
main_cm4.c:859:38: warning: unused variable '_state' [-Wunused-variable]
             cy_en_ble_conn_state_t   _state;
                                      ^
main_cm4.c:858:38: warning: unused variable '_handle' [-Wunused-variable]
             cy_stc_ble_conn_handle_t _handle;
                                      ^
main_cm4.c:666:9: warning: unused variable 'len' [-Wunused-variable]
     int len;
         ^
main_cm4.c: In function 'procRxNotification':
main_cm4.c:1253:25: warning: pointer targets in passing argument 1 of 'com_debug_PutString' differ in signedness [-Wpointer-sign]
     com_debug_PutString(buflog);
                         ^
In file included from Generated_Source\PSoC6/project.h:169:0,
                 from main_cm4.h:12,
                 from main_cm4.c:12:
Generated_Source\PSoC6/com_debug.h:442:22: note: expected 'const char_t * {aka const char *}' but argument is of type 'uint8_t * {aka unsigned char *}'
 __STATIC_INLINE void com_debug_PutString(char_t const string[])
                      ^
main_cm4.c:1241:13: warning: unused variable 'id_risposta' [-Wunused-variable]
     uint8_t id_risposta = param->handleValPair.value.val[3];
             ^
main_cm4.c: In function 'EnableNotification':
main_cm4.c:1324:41: warning: unused variable 'param' [-Wunused-variable]
     cy_stc_ble_gatts_handle_value_ntf_t param;
                                         ^
main_cm4.c: In function 'StackEventHandler':
main_cm4.c:1430:33: warning: unused variable 'result' [-Wunused-variable]
         cy_en_ble_api_result_t* result = (cy_en_ble_api_result_t*)eventParam;
                                 ^
main_cm4.c:1622:35: warning: unused variable 'err' [-Wunused-variable]
         cy_en_ble_gatt_err_code_t err = mParam->gattErrorCode;
                                   ^
main_cm4.c:1641:22: warning: variable 'attr_length' set but not used [-Wunused-but-set-variable]
             uint16_t attr_length;
                      ^
main_cm4.c:1888:58: warning: unused variable 'param' [-Wunused-variable]
             cy_stc_ble_gattc_long_procedure_end_param_t *param = (cy_stc_ble_gattc_long_procedure_end_param_t*)eventParam;
                                                          ^
main_cm4.c: In function 'attrHandleInit':
main_cm4.c:1924:43: warning: unused variable 'param2' [-Wunused-variable]
     cy_stc_ble_gattc_read_by_type_req_t   param2;
                                           ^
arm-none-eabi-gcc.exe -Wl,--start-group -o C:\Progetti\Cypress\sw2271.cydsn\sw2271.cydsn\CortexM4\ARM_GCC_541\Debug\sw2271_link.elf Generated_Source\PSoC6\pdl\drivers\peripheral\crypto\libs\cy_crypto_client_gcc.a Generated_Source\PSoC6\pdl\drivers\peripheral\crypto\libs\cy_crypto_server_gcc.a Generated_Source\PSoC6\pdl\middleware\ble\lib\cy_ble_stack_gcc_host_ipc_cm4.a .\CortexM4\ARM_GCC_541\Debug\startup_psoc6_01_cm4.o .\CortexM4\ARM_GCC_541\Debug\main_cm4.o .\CortexM4\ARM_GCC_541\Debug\system_psoc6_cm4.o .\CortexM4\ARM_GCC_541\Debug\crypto.o .\CortexM4\ARM_GCC_541\Debug\cyfitter_sysint_cfg.o .\CortexM4\ARM_GCC_541\Debug\cymetadata.o .\CortexM4\ARM_GCC_541\Debug\BLE.o .\CortexM4\ARM_GCC_541\Debug\BLE_config.o .\CortexM4\ARM_GCC_541\Debug\cy_efuse.o .\CortexM4\ARM_GCC_541\Debug\cy_flash.o .\CortexM4\ARM_GCC_541\Debug\cy_gpio.o .\CortexM4\ARM_GCC_541\Debug\cy_ipc_drv.o .\CortexM4\ARM_GCC_541\Debug\cy_ipc_sema.o .\CortexM4\ARM_GCC_541\Debug\cy_ipc_pipe.o .\CortexM4\ARM_GCC_541\Debug\cy_lvd.o .\CortexM4\ARM_GCC_541\Debug\cy_profile.o .\CortexM4\ARM_GCC_541\Debug\cy_prot.o .\CortexM4\ARM_GCC_541\Debug\cy_sysanalog.o .\CortexM4\ARM_GCC_541\Debug\cy_sysclk.o .\CortexM4\ARM_GCC_541\Debug\cy_sysint.o .\CortexM4\ARM_GCC_541\Debug\cy_syslib.o .\CortexM4\ARM_GCC_541\Debug\cy_syslib_gcc.o .\CortexM4\ARM_GCC_541\Debug\cy_syspm.o .\CortexM4\ARM_GCC_541\Debug\cy_systick.o .\CortexM4\ARM_GCC_541\Debug\cy_trigmux.o .\CortexM4\ARM_GCC_541\Debug\cy_wdt.o .\CortexM4\ARM_GCC_541\Debug\cy_device.o .\CortexM4\ARM_GCC_541\Debug\cy_scb_common.o .\CortexM4\ARM_GCC_541\Debug\cy_scb_i2c.o .\CortexM4\ARM_GCC_541\Debug\cy_scb_ezi2c.o .\CortexM4\ARM_GCC_541\Debug\cy_scb_spi.o .\CortexM4\ARM_GCC_541\Debug\cy_scb_uart.o .\CortexM4\ARM_GCC_541\Debug\cy_mcwdt.o .\CortexM4\ARM_GCC_541\Debug\cy_ble.o .\CortexM4\ARM_GCC_541\Debug\cy_ble_hal_int.o .\CortexM4\ARM_GCC_541\Debug\cy_ble_hal_pvt.o .\CortexM4\ARM_GCC_541\Debug\cy_ble_gap.o .\CortexM4\ARM_GCC_541\Debug\cy_ble_gatt.o .\CortexM4\ARM_GCC_541\Debug\cy_ble_event_handler.o .\CortexM4\ARM_GCC_541\Debug\cy_ble_ancs.o .\CortexM4\ARM_GCC_541\Debug\cy_ble_ans.o .\CortexM4\ARM_GCC_541\Debug\cy_ble_aios.o .\CortexM4\ARM_GCC_541\Debug\cy_ble_bas.o .\CortexM4\ARM_GCC_541\Debug\cy_ble_bcs.o .\CortexM4\ARM_GCC_541\Debug\cy_ble_bls.o .\CortexM4\ARM_GCC_541\Debug\cy_ble_bms.o .\CortexM4\ARM_GCC_541\Debug\cy_ble_bts.o .\CortexM4\ARM_GCC_541\Debug\cy_ble_cgms.o .\CortexM4\ARM_GCC_541\Debug\cy_ble_cps.o .\CortexM4\ARM_GCC_541\Debug\cy_ble_cscs.o .\CortexM4\ARM_GCC_541\Debug\cy_ble_cts.o .\CortexM4\ARM_GCC_541\Debug\cy_ble_custom.o .\CortexM4\ARM_GCC_541\Debug\cy_ble_dis.o .\CortexM4\ARM_GCC_541\Debug\cy_ble_ess.o .\CortexM4\ARM_GCC_541\Debug\cy_ble_gls.o .\CortexM4\ARM_GCC_541\Debug\cy_ble_hids.o .\CortexM4\ARM_GCC_541\Debug\cy_ble_hps.o .\CortexM4\ARM_GCC_541\Debug\cy_ble_hrs.o .\CortexM4\ARM_GCC_541\Debug\cy_ble_hts.o .\CortexM4\ARM_GCC_541\Debug\cy_ble_ias.o .\CortexM4\ARM_GCC_541\Debug\cy_ble_ips.o .\CortexM4\ARM_GCC_541\Debug\cy_ble_lls.o .\CortexM4\ARM_GCC_541\Debug\cy_ble_lns.o .\CortexM4\ARM_GCC_541\Debug\cy_ble_ndcs.o .\CortexM4\ARM_GCC_541\Debug\cy_ble_plxs.o .\CortexM4\ARM_GCC_541\Debug\cy_ble_pass.o .\CortexM4\ARM_GCC_541\Debug\cy_ble_rscs.o .\CortexM4\ARM_GCC_541\Debug\cy_ble_rtus.o .\CortexM4\ARM_GCC_541\Debug\cy_ble_scps.o .\CortexM4\ARM_GCC_541\Debug\cy_ble_tps.o .\CortexM4\ARM_GCC_541\Debug\cy_ble_uds.o .\CortexM4\ARM_GCC_541\Debug\cy_ble_wpts.o .\CortexM4\ARM_GCC_541\Debug\cy_ble_wss.o .\CortexM4\ARM_GCC_541\Debug\cy_ble_clk.o .\CortexM4\ARM_GCC_541\Debug\cy_em_eeprom.o .\CortexM4\ARM_GCC_541\Debug\cy_dfu.o .\CortexM4\ARM_GCC_541\Debug\com.o .\CortexM4\ARM_GCC_541\Debug\Em_EEPROM.o .\CortexM4\ARM_GCC_541\Debug\com_debug.o .\CortexM4\ARM_GCC_541\Debug\MIO_WDOG_PDL.o -mcpu=cortex-m4 -mfloat-abi=softfp -mfpu=fpv4-sp-d16 -mthumb -L Generated_Source\PSoC6 -Wl,-Map,.\CortexM4\ARM_GCC_541\Debug/sw2271.map -T cy8c6xx7_cm4_dual.ld -specs=nano.specs -Wl,--gc-sections -g -ffunction-sections -Og -ffat-lto-objects -Wl,--end-group
C:\Cypress\PDL\3.1.7\tools\win\elf\cymcuelftool.exe --sign C:\Progetti\Cypress\sw2271.cydsn\sw2271.cydsn\CortexM4\ARM_GCC_541\Debug\sw2271_link.elf --output C:\Progetti\Cypress\sw2271.cydsn\sw2271.cydsn\CortexM4\ARM_GCC_541\Debug\sw2271_signed.elf --hex C:\Progetti\Cypress\sw2271.cydsn\sw2271.cydsn\CortexM4\ARM_GCC_541\Debug\sw2271_signed.hex
ELF section .cy_app_signature found, but no hash specified. Skipping application signature
No ELF section .cychecksum found, creating one
Application checksum calculated and stored in ELF section .cychecksum
Checksum calculated and stored in ELF section .cymeta
C:\Cypress\PDL\3.1.7\tools\win\elf\cymcuelftool.exe --merge C:\Progetti\Cypress\sw2271.cydsn\sw2271.cydsn\CortexM4\ARM_GCC_541\Debug\sw2271_signed.elf C:\Progetti\Cypress\sw2271.cydsn\sw2271.cydsn\CortexM0p\ARM_GCC_541\Debug\sw2271.elf --output C:\Progetti\Cypress\sw2271.cydsn\sw2271.cydsn\CortexM4\ARM_GCC_541\Debug\sw2271.elf --hex C:\Progetti\Cypress\sw2271.cydsn\sw2271.cydsn\CortexM4\ARM_GCC_541\Debug\sw2271.hex
Application checksum calculated and stored in ELF section .cychecksum
Checksum calculated and stored in ELF section .cymeta
C:\Cypress\PDL\3.1.7\tools\win\elf\cymcuelftool.exe -A C:\Progetti\Cypress\sw2271.cydsn\sw2271.cydsn\CortexM4\ARM_GCC_541\Debug\sw2271.elf
code:222920	sram:60272
--------------- Build Succeeded: 08/07/2024 22:10:37 ---------------
